Transform a data frame
…
Task

Take the billboard dataset. It looks like this:

Use the pivot_longer() function to create a dataset that looks like this:

billboard %>%
  pivot_longer(starts_with("wk"), names_to = "week", 
               values_to = "position", values_drop_na = TRUE)
# A tibble: 5,307 x 5
   artist  track                   date.entered week  position
   <chr>   <chr>                   <date>       <chr>    <dbl>
 1 2 Pac   Baby Don't Cry (Keep... 2000-02-26   wk1         87
 2 2 Pac   Baby Don't Cry (Keep... 2000-02-26   wk2         82
 3 2 Pac   Baby Don't Cry (Keep... 2000-02-26   wk3         72
 4 2 Pac   Baby Don't Cry (Keep... 2000-02-26   wk4         77
 5 2 Pac   Baby Don't Cry (Keep... 2000-02-26   wk5         87
 6 2 Pac   Baby Don't Cry (Keep... 2000-02-26   wk6         94
 7 2 Pac   Baby Don't Cry (Keep... 2000-02-26   wk7         99
 8 2Ge+her The Hardest Part Of ... 2000-09-02   wk1         91
 9 2Ge+her The Hardest Part Of ... 2000-09-02   wk2         87
10 2Ge+her The Hardest Part Of ... 2000-09-02   wk3         92
# ... with 5,297 more rows
…
