Transform a data frame
…
Task

Take the billboard dataset (package tidyverse/tidyr). It looks like this:

Use the pivot_longer() function to create a dataset that looks like this:

billboard %>%
  pivot_longer(starts_with("wk"), names_to = "week", 
               values_to = "position", values_drop_na = TRUE)
# A tibble: 5,307 × 5
   artist  track                   date.entered week  position
   <chr>   <chr>                   <date>       <chr>    <dbl>
 1 2 Pac   Baby Don't Cry (Keep... 2000-02-26   wk1         87
 2 2 Pac   Baby Don't Cry (Keep... 2000-02-26   wk2         82
 3 2 Pac   Baby Don't Cry (Keep... 2000-02-26   wk3         72
 4 2 Pac   Baby Don't Cry (Keep... 2000-02-26   wk4         77
 5 2 Pac   Baby Don't Cry (Keep... 2000-02-26   wk5         87
 6 2 Pac   Baby Don't Cry (Keep... 2000-02-26   wk6         94
 7 2 Pac   Baby Don't Cry (Keep... 2000-02-26   wk7         99
 8 2Ge+her The Hardest Part Of ... 2000-09-02   wk1         91
 9 2Ge+her The Hardest Part Of ... 2000-09-02   wk2         87
10 2Ge+her The Hardest Part Of ... 2000-09-02   wk3         92
# … with 5,297 more rows
…
df %>%
  pivot_longer(cols = 2:3, 
               names_to = 'bp_type', 
               values_to = 'pressure') %>%
  pivot_longer(cols = c("anxious", "happy", "sad"), 
               names_to = 'emotion', 
               values_to = 'emotion_value')
# A tibble: 180 × 5
      id bp_type pressure emotion emotion_value
   <int> <chr>      <dbl> <chr>           <int>
 1     1 dia          128 anxious             2
 2     1 dia          128 happy               3
 3     1 dia          128 sad                 1
 4     1 sys           85 anxious             2
 5     1 sys           85 happy               3
 6     1 sys           85 sad                 1
 7     2 dia          107 anxious             1
 8     2 dia          107 happy               5
 9     2 dia          107 sad                 5
10     2 sys           69 anxious             1
# … with 170 more rows
…
use ggplot with aesthetics: x = emotion, y = pressure, color = bp_type, size = emotion_value.

Add a jitter geom with width 0.2.

Step 1:

df_long <- df %>%
  pivot_longer(cols = 2:3, 
               names_to = 'bp_type', 
               values_to = 'pressure') %>%
  pivot_longer(cols = c("anxious", "happy", "sad"), 
               names_to = 'emotion', 
               values_to = 'emotion_value')
df_long
# A tibble: 180 × 5
      id bp_type pressure emotion emotion_value
   <int> <chr>      <dbl> <chr>           <int>
 1     1 dia          128 anxious             2
 2     1 dia          128 happy               3
 3     1 dia          128 sad                 1
 4     1 sys           85 anxious             2
 5     1 sys           85 happy               3
 6     1 sys           85 sad                 1
 7     2 dia          107 anxious             1
 8     2 dia          107 happy               5
 9     2 dia          107 sad                 5
10     2 sys           69 anxious             1
# … with 170 more rows
…
