dplyr
…
- Take the `starwars` database.
- Filter for `Human` and select the variables `name, height, and mass` (Hint: variable `species`)

<div class="red2">**Please stop the video here! Continue after completing the task!**</div>

---

```r
starwars %>% 
  filter(species == "Human") %>% 
  select(name:mass)
```

```
## # A tibble: 35 x 3
##    name               height  mass
##    <chr>               <int> <dbl>
##  1 Luke Skywalker        172    77
##  2 Darth Vader           202   136
##  3 Leia Organa           150    49
##  4 Owen Lars             178   120
##  5 Beru Whitesun lars    165    75
##  6 Biggs Darklighter     183    84
##  7 Obi-Wan Kenobi        182    77
##  8 Anakin Skywalker      188    84
##  9 Wilhuff Tarkin        180    NA
## 10 Han Solo              180    80
## # … with 25 more rows
```

---

# relocate() changes the column order

The `relocate()` function helps to rearrange the columns of a data frame 

```r
starwars %>% 
  relocate(name, birth_year, sex)
```

```
## # A tibble: 87 x 14
##    name    birth_year sex    height  mass hair_color skin_color eye_color gender
##    <chr>        <dbl> <chr>   <int> <dbl> <chr>      <chr>      <chr>     <chr> 
##  1 Luke S…       19   male      172    77 blond      fair       blue      mascu…
##  2 C-3PO        112   none      167    75 <NA>       gold       yellow    mascu…
##  3 R2-D2         33   none       96    32 <NA>       white, bl… red       mascu…
##  4 Darth …       41.9 male      202   136 none       white      yellow    mascu…
##  5 Leia O…       19   female    150    49 brown      light      brown     femin…
##  6 Owen L…       52   male      178   120 brown, gr… light      blue      mascu…
##  7 Beru W…       47   female    165    75 brown      light      blue      femin…
##  8 R5-D4         NA   none       97    32 <NA>       white, red red       mascu…
##  9 Biggs …       24   male      183    84 black      light      brown     mascu…
## 10 Obi-Wa…       57   male      182    77 auburn, w… fair       blue-gray mascu…
## # … with 77 more rows, and 5 more variables: homeworld <chr>, species <chr>,
## #   films <list>, vehicles <list>, starships <list>
```
…
