dplyr
…
# Task

- Take the `uwezo` database. `uwezo <- readRDS("uwezo_2015_clean.rds")`
- Filter all cases from the district `Abim` where the gender of the interviewed person is `Male` (Hint: variables `id_districtName` and `hh_gender`)

---

```r
library(tidyverse)
uwezo %>% 
  filter(id_districtName == "Abim" & hh_gender == "Male")
```

```
## # A tibble: 551 x 156
##    id_database id_district id_districtName id_hh   id_regionName id_village
##    <dic>       <dic>       <dic>           <dic>   <dic>         <dic>     
##  1 UG15        314         Abim            2071001 North         2071      
##  2 UG15        314         Abim            2071002 North         2071      
##  3 UG15        314         Abim            2071002 North         2071      
##  4 UG15        314         Abim            2071004 North         2071      
##  5 UG15        314         Abim            2071014 North         2071      
##  6 UG15        314         Abim            2071015 North         2071      
##  7 UG15        314         Abim            2071015 North         2071      
##  8 UG15        314         Abim            2071015 North         2071      
##  9 UG15        314         Abim            2071015 North         2071      
## 10 UG15        314         Abim            2071015 North         2071      
## # … with 541 more rows, and 150 more variables: county_code1 <dic>,
## #   county <dic>, parishcode <dic>, subcounty_code <dic>, subcounty_name <dic>,
## #   parish_name <dic>, locationcode <dic>, location <dic>, ea_code <dic>,
## #   eacode <dic>, village_estate <dic>, urban_code <dic>, no_of_hhs <dic>,
## #   males <dic>, females <dic>, sample_no <dic>, ea_code1 <dic>,
## #   validationcode <dic>, date <dic>, hhno <dic>, answering_person <dic>,
## #   hh_gender <dic>, hh_age <dic>, hh_edu_raw <fct>, household_visited <dic>,
## #   whichyear <dic>, home_language <dic>, hh_size <dic>, hh_males <dic>,
## #   hh_females <dic>, house_wall <dic>, house_lighting <dic>,
…
# Task

- Take the `uwezo` database.
- Filter for `Male` interviewed person and select the variables `answering_person, hh_age, and hh_edu_raw` (Hint: variable `species`)

---

```r
uwezo %>% 
  filter(hh_gender == "Male") %>% 
  select(answering_person, hh_age, hh_edu_raw)
```

```
## # A tibble: 62,136 x 3
##    answering_person hh_age hh_edu_raw
##    <dic>            <dic>  <fct>     
##  1 HH head          46     Primary   
##  2 HH head          46     Primary   
##  3 HH head          46     Primary   
##  4 HH head          46     Primary   
##  5 HH head          46     Primary   
##  6 HH head          46     Primary   
##  7 HH head          81     Primary   
##  8 HH head          79     Primary   
##  9 HH head          49     Primary   
## 10 HH head          49     Primary   
## # … with 62,126 more rows
```

---

# relocate() changes the column order

The `relocate()` function helps to rearrange the columns of a data frame 

```r
starwars %>% 
  relocate(name, birth_year, sex)
```

```
## # A tibble: 87 x 14
##    name    birth_year sex    height  mass hair_color skin_color eye_color gender
##    <chr>        <dbl> <chr>   <int> <dbl> <chr>      <chr>      <chr>     <chr> 
##  1 Luke S…       19   male      172    77 blond      fair       blue      mascu…
##  2 C-3PO        112   none      167    75 <NA>       gold       yellow    mascu…
##  3 R2-D2         33   none       96    32 <NA>       white, bl… red       mascu…
##  4 Darth …       41.9 male      202   136 none       white      yellow    mascu…
##  5 Leia O…       19   female    150    49 brown      light      brown     femin…
##  6 Owen L…       52   male      178   120 brown, gr… light      blue      mascu…
##  7 Beru W…       47   female    165    75 brown      light      blue      femin…
##  8 R5-D4         NA   none       97    32 <NA>       white, red red       mascu…
##  9 Biggs …       24   male      183    84 black      light      brown     mascu…
## 10 Obi-Wa…       57   male      182    77 auburn, w… fair       blue-gray mascu…
## # … with 77 more rows, and 5 more variables: homeworld <chr>, species <chr>,
## #   films <list>, vehicles <list>, starships <list>
```
…
---

```r
uwezo %>%
  mutate(age_median_split = hh_age >= median(hh_age, na.rm = TRUE)) %>%
  filter(age_median_split == FALSE) %>%
  select(hh_size, house_wall)
```

```
## # A tibble: 70,666 x 2
##    hh_size house_wall  
##    <dic>   <dic>       
##  1 3       Stone/Bricks
##  2 3       Timber      
##  3 7       Stone/Bricks
##  4 7       Stone/Bricks
##  5 7       Stone/Bricks
##  6 7       Stone/Bricks
##  7 7       Stone/Bricks
##  8 5       Stone/Bricks
##  9 5       Stone/Bricks
## 10 5       Stone/Bricks
## # … with 70,656 more rows
```
…
---

```r
uwezo %>%
  group_by(id_districtName) %>%
  summarise(
    size = mean(hh_size, na.rm = TRUE),
    n = n()
  )
```

```
## # A tibble: 112 x 3
##    id_districtName  size     n
##    <dic>           <dbl> <int>
##  1 Abim             7.29  1537
##  2 Adjumani         7.27  1557
##  3 Agago            7.18  1849
##  4 Alebtong         6.79  1502
##  5 Amolatar         7.67  1531
##  6 Amudat           6.78  1830
##  7 Amuria           7.70  1445
##  8 Amuru            7.64  1623
##  9 Apac             6.82  1373
## 10 Arua             8.24  1427
## # … with 102 more rows
```
…
